Lab 1/four_bit_adder_data/four_bit_adder_waves.vcd
$date
	Thu Feb 08 11:26:28 2024
$end
$version
	Icarus Verilog
$end
$timescale
	1ns
$end
$scope module full_adder_top $end
$scope module four_bit_adder $end
$var wire 4 ! a [3:0] $end
$var wire 4 " b [3:0] $end
$var wire 1 # cin $end
$var wire 1 $ cout $end
$var wire 1 % overfl $end
$var wire 4 & y [3:0] $end
$var wire 1 ' s9 $end
$var wire 1 ( s8 $end
$var wire 1 ) s7 $end
$var wire 1 * s6 $end
$var wire 1 + s5 $end
$var wire 1 , s4 $end
$var wire 1 - s3 $end
$var wire 1 . s2 $end
$var wire 1 / s14 $end
$var wire 1 0 s13 $end
$var wire 1 1 s12 $end
$var wire 1 2 s11 $end
$var wire 1 3 s10 $end
$var wire 1 4 s1 $end
$var wire 1 5 s0 $end
$var wire 1 6 cout_temp $end
$scope module full_adder_i0 $end
$var wire 1 - a $end
$var wire 1 ) b $end
$var wire 1 # cin $end
$var wire 1 / cout $end
$var wire 1 2 sum $end
$upscope $end
$scope module full_adder_i1 $end
$var wire 1 . a $end
$var wire 1 * b $end
$var wire 1 / cin $end
$var wire 1 0 cout $end
$var wire 1 3 sum $end
$upscope $end
$scope module full_adder_i2 $end
$var wire 1 4 a $end
$var wire 1 + b $end
$var wire 1 0 cin $end
$var wire 1 1 cout $end
$var wire 1 ' sum $end
$upscope $end
$scope module full_adder_i3 $end
$var wire 1 5 a $end
$var wire 1 , b $end
$var wire 1 1 cin $end
$var wire 1 6 cout $end
$var wire 1 ( sum $end
$upscope $end
$upscope $end
$upscope $end
$enddefinitions $end
#0
$dumpvars
06
05
04
03
02
01
00
0/
0.
0-
0,
0+
0*
0)
0(
0'
b0 &
0%
0$
0#
b0 "
b0 !
$end
#10
1$
16
0%
11
13
b10 &
0(
10
1/
15
14
1.
1-
1*
1)
b1111 !
b11 "
#20
01
0%
1'
0$
06
00
b110 &
0(
05
0.
0*
b101 !
b1 "
#30
1(
1%
11
0'
10
b1010 &
02
04
1.
1+
1*
0)
1#
b11 !
b110 "
#40
0%
1'
1$
16
b1111 &
12
15
14
1,
1)
b1111 !
b1111 "
#50
0(
01
00
0%
0$
06
1'
0/
b111 &
12
05
0.
0,
0+
0)
0#
b101 !
b10 "
#60
1$
16
0%
11
0'
10
03
1/
0(
b0 &
02
15
1.
0*
1#
b1111 !
b0 "
#70
0$
06
01
00
0/
0(
0'
03
b1 &
12
05
04
0.
0-
b0 !
#80
1$
16
0%
11
b0 &
02
15
14
1+
0#
b1100 !
b100 "
#90
1$
16
10
0(
0%
0'
11
1/
b1 &
12
05
04
1-
1,
1*
1)
1#
b1 !
b1111 "
#100
1(
0/
b1001 &
12
15
1.
0-
0#
b1010 !
#110
1$
16
0%
11
0'
10
02
1/
b0 &
0(
0.
1-
0,
b1001 !
b111 "
#120
0$
06
1(
0%
01
12
0/
b1101 &
1'
05
1.
0-
1,
0+
b10 !
b1011 "
#130
b1001 &
0'
1$
16
11
00
15
14
0.
1+
0*
b1100 !
b1101 "
#140
1%
0$
06
b1001 &
12
05
0,
0)
1#
b100 !
b100 "
#150
0(
1'
01
1$
16
b101 &
12
15
04
1-
1,
0#
b1001 !
b1100 "
